{"failedCount":0,"prefixedPath":"classpath:examples\/users\/GetCallDemo.feature","packageQualifiedName":"examples.users.GetCallDemo","loopIndex":-1,"relativePath":"examples\/users\/GetCallDemo.feature","scenarioResults":[{"sectionIndex":0,"stepResults":[{"result":{"nanos":821600,"startTime":1715590416140,"endTime":1715590416141,"millis":0.8216,"status":"passed"},"step":{"background":true,"line":4,"prefix":"Given","index":0,"text":"url 'https:\/\/reqres.in\/api\/'"},"stepLog":"16:53:36.106 karate.env system property was: null \n"},{"result":{"nanos":324500,"startTime":1715590416143,"endTime":1715590416143,"millis":0.3245,"status":"passed"},"step":{"line":7,"prefix":"Given","index":0,"text":"path 'users\/2'"}},{"result":{"nanos":385930100,"startTime":1715590416143,"endTime":1715590416529,"millis":385.9301,"status":"passed"},"step":{"line":8,"prefix":"When","index":1,"text":"method get"},"stepLog":"16:53:36.334 request:\n1 > GET https:\/\/reqres.in\/api\/users\/2\n1 > Host: reqres.in\n1 > Connection: Keep-Alive\n1 > User-Agent: Apache-HttpClient\/4.5.14 (Java\/17.0.4.1)\n1 > Accept-Encoding: gzip,deflate\n\n\n16:53:36.504 response time in milliseconds: 166\n1 < 200\n1 < Date: Mon, 13 May 2024 08:53:36 GMT\n1 < Content-Type: application\/json; charset=utf-8\n1 < Transfer-Encoding: chunked\n1 < Connection: keep-alive\n1 < Report-To: {\"group\":\"heroku-nel\",\"max_age\":3600,\"endpoints\":[{\"url\":\"https:\/\/nel.heroku.com\/reports?ts=1715566131&sid=c4c9725f-1ab0-44d8-820f-430df2718e11&s=PzthrpGZj2tiGptqxtEjOKA4iHM%2F0S51wVZGZvXi6iE%3D\"}]}\n1 < Reporting-Endpoints: heroku-nel=https:\/\/nel.heroku.com\/reports?ts=1715566131&sid=c4c9725f-1ab0-44d8-820f-430df2718e11&s=PzthrpGZj2tiGptqxtEjOKA4iHM%2F0S51wVZGZvXi6iE%3D\n1 < Nel: {\"report_to\":\"heroku-nel\",\"max_age\":3600,\"success_fraction\":0.005,\"failure_fraction\":0.05,\"response_headers\":[\"Via\"]}\n1 < X-Powered-By: Express\n1 < Access-Control-Allow-Origin: *\n1 < Etag: W\/\"118-pbdwwFo9SKNhD3Lx5iHJyngpq00\"\n1 < Via: 1.1 vegur\n1 < Cache-Control: max-age=14400\n1 < CF-Cache-Status: HIT\n1 < Age: 371\n1 < Vary: Accept-Encoding\n1 < Server: cloudflare\n1 < CF-RAY: 88316b458978bc3f-MNL\n{\"data\":{\"id\":2,\"email\":\"janet.weaver@reqres.in\",\"first_name\":\"Janet\",\"last_name\":\"Weaver\",\"avatar\":\"https:\/\/reqres.in\/img\/faces\/2-image.jpg\"},\"support\":{\"url\":\"https:\/\/reqres.in\/#support-heading\",\"text\":\"To keep ReqRes free, contributions towards server costs are appreciated!\"}}\n\n"},{"result":{"nanos":17800,"startTime":1715590416529,"endTime":1715590416529,"millis":0.0178,"status":"passed"},"step":{"line":9,"prefix":"Then","index":2,"text":"status 200"}}],"executorName":"main","line":6,"name":"Get Details of User 2","description":"","durationMillis":387.094,"startTime":1715590415986,"failed":false,"refId":"[1:6]","endTime":1715590416529,"exampleIndex":-1},{"sectionIndex":1,"stepResults":[{"result":{"nanos":563700,"startTime":1715590416543,"endTime":1715590416544,"millis":0.5637,"status":"passed"},"step":{"background":true,"line":4,"prefix":"Given","index":0,"text":"url 'https:\/\/reqres.in\/api\/'"},"stepLog":"16:53:36.542 karate.env system property was: null \n"},{"result":{"nanos":210600,"startTime":1715590416544,"endTime":1715590416544,"millis":0.2106,"status":"passed"},"step":{"line":12,"prefix":"Given","index":0,"text":"path 'users'"}},{"result":{"nanos":594900,"startTime":1715590416544,"endTime":1715590416545,"millis":0.5949,"status":"passed"},"step":{"line":13,"prefix":"And","index":1,"text":"param page = \"2\""}},{"result":{"nanos":90609600,"startTime":1715590416545,"endTime":1715590416636,"millis":90.6096,"status":"passed"},"step":{"line":14,"prefix":"When","index":2,"text":"method get"},"stepLog":"16:53:36.547 request:\n1 > GET https:\/\/reqres.in\/api\/users?page=2\n1 > Host: reqres.in\n1 > Connection: Keep-Alive\n1 > User-Agent: Apache-HttpClient\/4.5.14 (Java\/17.0.4.1)\n1 > Accept-Encoding: gzip,deflate\n\n\n16:53:36.634 response time in milliseconds: 86\n1 < 200\n1 < Date: Mon, 13 May 2024 08:53:36 GMT\n1 < Content-Type: application\/json; charset=utf-8\n1 < Transfer-Encoding: chunked\n1 < Connection: keep-alive\n1 < Report-To: {\"group\":\"heroku-nel\",\"max_age\":3600,\"endpoints\":[{\"url\":\"https:\/\/nel.heroku.com\/reports?ts=1715566128&sid=c4c9725f-1ab0-44d8-820f-430df2718e11&s=OUOcBOm2LhwEU68OLQtGj7BEkp3PFBhw7jesAUgYOUk%3D\"}]}\n1 < Reporting-Endpoints: heroku-nel=https:\/\/nel.heroku.com\/reports?ts=1715566128&sid=c4c9725f-1ab0-44d8-820f-430df2718e11&s=OUOcBOm2LhwEU68OLQtGj7BEkp3PFBhw7jesAUgYOUk%3D\n1 < Nel: {\"report_to\":\"heroku-nel\",\"max_age\":3600,\"success_fraction\":0.005,\"failure_fraction\":0.05,\"response_headers\":[\"Via\"]}\n1 < X-Powered-By: Express\n1 < Access-Control-Allow-Origin: *\n1 < Etag: W\/\"406-ut0vzoCuidvyMf8arZpMpJ6ZRDw\"\n1 < Via: 1.1 vegur\n1 < Cache-Control: max-age=14400\n1 < CF-Cache-Status: HIT\n1 < Age: 4991\n1 < Vary: Accept-Encoding\n1 < Server: cloudflare\n1 < CF-RAY: 88316b4619f1b9f0-MNL\n{\"page\":2,\"per_page\":6,\"total\":12,\"total_pages\":2,\"data\":[{\"id\":7,\"email\":\"michael.lawson@reqres.in\",\"first_name\":\"Michael\",\"last_name\":\"Lawson\",\"avatar\":\"https:\/\/reqres.in\/img\/faces\/7-image.jpg\"},{\"id\":8,\"email\":\"lindsay.ferguson@reqres.in\",\"first_name\":\"Lindsay\",\"last_name\":\"Ferguson\",\"avatar\":\"https:\/\/reqres.in\/img\/faces\/8-image.jpg\"},{\"id\":9,\"email\":\"tobias.funke@reqres.in\",\"first_name\":\"Tobias\",\"last_name\":\"Funke\",\"avatar\":\"https:\/\/reqres.in\/img\/faces\/9-image.jpg\"},{\"id\":10,\"email\":\"byron.fields@reqres.in\",\"first_name\":\"Byron\",\"last_name\":\"Fields\",\"avatar\":\"https:\/\/reqres.in\/img\/faces\/10-image.jpg\"},{\"id\":11,\"email\":\"george.edwards@reqres.in\",\"first_name\":\"George\",\"last_name\":\"Edwards\",\"avatar\":\"https:\/\/reqres.in\/img\/faces\/11-image.jpg\"},{\"id\":12,\"email\":\"rachel.howell@reqres.in\",\"first_name\":\"Rachel\",\"last_name\":\"Howell\",\"avatar\":\"https:\/\/reqres.in\/img\/faces\/12-image.jpg\"}],\"support\":{\"url\":\"https:\/\/reqres.in\/#support-heading\",\"text\":\"To keep ReqRes free, contributions towards server costs are appreciated!\"}}\n\n"},{"result":{"nanos":6400,"startTime":1715590416636,"endTime":1715590416636,"millis":0.0064,"status":"passed"},"step":{"line":15,"prefix":"Then","index":3,"text":"status 200"}},{"result":{"nanos":24818400,"startTime":1715590416636,"endTime":1715590416661,"millis":24.8184,"status":"passed"},"step":{"line":16,"prefix":"Then","index":4,"text":"match response.page == 2"}}],"executorName":"main","line":11,"name":"Get Details of User Params 2","description":"","durationMillis":116.8036,"startTime":1715590416540,"failed":false,"refId":"[2:11]","endTime":1715590416660,"exampleIndex":-1},{"sectionIndex":2,"stepResults":[{"result":{"nanos":121100,"startTime":1715590416668,"endTime":1715590416668,"millis":0.1211,"status":"passed"},"step":{"background":true,"line":4,"prefix":"Given","index":0,"text":"url 'https:\/\/reqres.in\/api\/'"},"stepLog":"16:53:36.667 karate.env system property was: null \n"},{"result":{"nanos":946900,"startTime":1715590416668,"endTime":1715590416669,"millis":0.9469,"status":"passed"},"step":{"endLine":25,"line":19,"prefix":"*","docString":"{\n  \"name\": \"Juan Dela Cruz\",\n  \"job\": \"leader\"\n}","index":0,"text":"def user ="}},{"result":{"nanos":70900,"startTime":1715590416669,"endTime":1715590416669,"millis":0.0709,"status":"passed"},"step":{"line":27,"prefix":"Given","index":1,"text":"path 'users'"}},{"result":{"nanos":304300,"startTime":1715590416669,"endTime":1715590416669,"millis":0.3043,"status":"passed"},"step":{"line":28,"prefix":"And","index":2,"text":"request user"}},{"result":{"nanos":684031100,"startTime":1715590416669,"endTime":1715590417353,"millis":684.0311,"status":"passed"},"step":{"line":29,"prefix":"When","index":3,"text":"method post"},"stepLog":"16:53:36.703 request:\n1 > POST https:\/\/reqres.in\/api\/users\n1 > Content-Type: application\/json; charset=UTF-8\n1 > Content-Length: 40\n1 > Host: reqres.in\n1 > Connection: Keep-Alive\n1 > User-Agent: Apache-HttpClient\/4.5.14 (Java\/17.0.4.1)\n1 > Accept-Encoding: gzip,deflate\n{\"name\":\"Juan Dela Cruz\",\"job\":\"leader\"}\n\n16:53:37.352 response time in milliseconds: 648\n1 < 201\n1 < Date: Mon, 13 May 2024 08:53:37 GMT\n1 < Content-Type: application\/json; charset=utf-8\n1 < Content-Length: 90\n1 < Connection: keep-alive\n1 < Report-To: {\"group\":\"heroku-nel\",\"max_age\":3600,\"endpoints\":[{\"url\":\"https:\/\/nel.heroku.com\/reports?ts=1715590416&sid=c4c9725f-1ab0-44d8-820f-430df2718e11&s=T8Z2NBiHlpbjlYeBr0MRnxbGVAFGHkuNaA8wlfn5%2B0I%3D\"}]}\n1 < Reporting-Endpoints: heroku-nel=https:\/\/nel.heroku.com\/reports?ts=1715590416&sid=c4c9725f-1ab0-44d8-820f-430df2718e11&s=T8Z2NBiHlpbjlYeBr0MRnxbGVAFGHkuNaA8wlfn5%2B0I%3D\n1 < Nel: {\"report_to\":\"heroku-nel\",\"max_age\":3600,\"success_fraction\":0.005,\"failure_fraction\":0.05,\"response_headers\":[\"Via\"]}\n1 < X-Powered-By: Express\n1 < Access-Control-Allow-Origin: *\n1 < Etag: W\/\"5a-q9yZao+8v\/DadYd0t5wSgHybBDQ\"\n1 < Via: 1.1 vegur\n1 < CF-Cache-Status: DYNAMIC\n1 < Server: cloudflare\n1 < CF-RAY: 88316b4709d8ba05-MNL\n{\"name\":\"Juan Dela Cruz\",\"job\":\"leader\",\"id\":\"714\",\"createdAt\":\"2024-05-13T08:53:36.963Z\"}\n\n"},{"result":{"nanos":6700,"startTime":1715590417354,"endTime":1715590417354,"millis":0.0067,"status":"passed"},"step":{"line":30,"prefix":"Then","index":4,"text":"status 201"}},{"result":{"nanos":1464700,"startTime":1715590417354,"endTime":1715590417355,"millis":1.4647,"status":"passed"},"step":{"line":31,"prefix":"Then","index":5,"text":"match response == \"#object\""}},{"result":{"nanos":767300,"startTime":1715590417355,"endTime":1715590417356,"millis":0.7673,"status":"passed"},"step":{"line":32,"prefix":"Then","index":6,"text":"match response.name == \"Juan Dela Cruz\""}},{"result":{"nanos":630400,"startTime":1715590417356,"endTime":1715590417357,"millis":0.6304,"status":"passed"},"step":{"line":34,"prefix":"*","index":7,"text":"def name = response.name"}},{"result":{"nanos":1280100,"startTime":1715590417356,"endTime":1715590417357,"millis":1.2801,"status":"passed"},"step":{"line":35,"prefix":"*","index":8,"text":"print 'created name is: ', name"},"stepLog":"16:53:37.357 [print] created name is:  Juan Dela Cruz \n"},{"result":{"nanos":290100,"startTime":1715590417358,"endTime":1715590417358,"millis":0.2901,"status":"passed"},"step":{"line":37,"prefix":"Given","index":9,"text":"path name"}}],"executorName":"main","line":18,"name":"create a user and then get it by id","description":"","durationMillis":689.9136,"startTime":1715590416666,"failed":false,"refId":"[3:18]","endTime":1715590417358,"exampleIndex":-1}],"callDepth":0,"name":"Get Details of User 2","description":"","resultDate":"2024-05-13 04:53:37 pm","durationMillis":1193.8112,"passedCount":3}